shoppingitem,corridor
PFANDBON,
Brot,
Küchenreiniger,
Spezialsalz,
Desinfektionsmittel,
Badreiniger,
Kaffeepads,
Veggi Würstchen,
Veggi Fleischwurst,
Kaffe Pads: Latte,
Veltins Curuba Bier,
ACE-Saft,
Grillkäse,
Frio Tee,
Curry Paste,
Cryer,
Kreuzkümmel,
Veggi Hack,
Sojasoße,
Veggi Stäbchen,
Tom-Moz Gewürz,
Chili,
Alio e Olio,
Frosch Reiniger,
Alpro Barista,
Aperol,
Schweppes WB,
